\relax 
\citation{achemso-control}
\providecommand{\mciteSetMaxWidth}[3]{\relax}
\providecommand{\mciteSetMaxCount}[3]{\relax}
\bibstyle{achemso}
\ifx\hyper@anchor\@undefined
\global \let \oldcontentsline\contentsline
\gdef \contentsline#1#2#3#4{\oldcontentsline{#1}{#2}{#3}}
\global \let \oldnewlabel\newlabel
\gdef \newlabel#1#2{\newlabelxx{#1}#2}
\gdef \newlabelxx#1#2#3#4#5#6{\oldnewlabel{#1}{{#2}{#3}}}
\AtEndDocument{\let \contentsline\oldcontentsline
\let \newlabel\oldnewlabel}
\else
\global \let \hyper@last\relax 
\fi

\@writefile{toc}{\contentsline {section}{\numberline {1}Overview of the Past Year}{1}{section.1}}
\newlabel{sec:overview}{{1}{1}{Overview of the Past Year\relax }{section.1}{}}
\citation{doi:10.1021/ct400485s}
\citation{doi:10.1021/ct400485s}
\citation{core_shell_jme}
\citation{core_shell_jme}
\citation{iso_vol}
\citation{iso_vol}
\citation{jme_pseudo}
\citation{jme_pseudo}
\citation{acc_dft}
\citation{acc_dft}
\citation{lucif_cdse}
\citation{lucif_cdse}
\citation{aps_1}
\citation{aps_1}
\citation{aps_acc}
\citation{aps_acc}
\citation{aps_2014}
\citation{aps_2014}
\citation{PhysRevB.53.9579}
\citation{PhysRevB.53.9579}
\citation{doi:10.1021/nn8006916}
\citation{doi:10.1021/nn8006916}
\citation{PhysRevLett.78.915}
\citation{PhysRevLett.78.915}
\citation{doi:10.1021/nn201681s}
\citation{doi:10.1021/nn201681s}
\citation{kucur:2333}
\citation{kucur:2333}
\citation{CPHC:CPHC200800482}
\citation{CPHC:CPHC200800482}
\citation{B508268B}
\citation{B508268B}
\citation{PhysRevB.53.9579}
\citation{doi:10.1021/nn8006916}
\citation{PhysRevLett.78.915}
\citation{doi:10.1021/nn201681s}
\citation{kucur:2333}
\citation{CPHC:CPHC200800482}
\citation{B508268B}
\citation{doi:10.1021/ct400485s}
\citation{doi:10.1021/ct400485s}
\@writefile{toc}{\contentsline {section}{\numberline {2}Progress on Understanding Size Effects on CdSe Quantum Dots}{3}{section.2}}
\newlabel{sec:cdse_size_effect}{{2}{3}{Progress on Understanding Size Effects on CdSe Quantum Dots\relax }{section.2}{}}
\@writefile{lof}{\contentsline {figure}{\numberline {1}{\ignorespaces Graphical abstract for studies of size effects on CdSe quantum dots. \relax }}{3}{figure.caption.2}}
\providecommand*\caption@xref[2]{\@setref\relax\@undefined{#1}}
\newlabel{fig:graphabscdse}{{Figure\nobreakspace  {}1}{3}{Graphical abstract for studies of size effects on CdSe quantum dots. \relax \relax }{figure.caption.2}{}}
\@writefile{lof}{\contentsline {figure}{\numberline {2}{\ignorespaces Log of binding energy ($E_{BE}$) versus log of diameter for CdSe quantum dots. The values from the eh-XCHF calculations are compared with results from earlier studies by Wang et al.\nobreakspace  {}\cite {PhysRevB.53.9579}, Franceschetti et al.\nobreakspace  {}\cite {doi:10.1021/nn8006916}, Meulenberg et al.\nobreakspace  {}\cite {PhysRevLett.78.915}, Jasieniak et al.\nobreakspace  {}\cite {doi:10.1021/nn201681s}, Kucur et al.\nobreakspace  {}\cite {kucur:2333}, Inamdar et al.\nobreakspace  {}\cite {CPHC:CPHC200800482}, and Querner et al.\nobreakspace  {}\cite {B508268B} \relax }}{3}{figure.caption.3}}
\newlabel{fig:loglogbe}{{Figure\nobreakspace  {}2}{3}{Log of binding energy ($E_{BE}$) versus log of diameter for CdSe quantum dots. The values from the eh-XCHF calculations are compared with results from earlier studies by Wang et al.~\cite {PhysRevB.53.9579}, Franceschetti et al.~\cite {doi:10.1021/nn8006916}, Meulenberg et al.~\cite {PhysRevLett.78.915}, Jasieniak et al.~\cite {doi:10.1021/nn201681s}, Kucur et al.~\cite {kucur:2333}, Inamdar et al.~\cite {CPHC:CPHC200800482}, and Querner et al.~\cite {B508268B} \relax \relax }{figure.caption.3}{}}
\@writefile{toc}{\contentsline {section}{\numberline {3}Progress on Separating Effect of Heterojunction from Effect of Size: CdSe/ZnS Quantum Dot System}{3}{section.3}}
\newlabel{sec:cdse_zns}{{3}{3}{Progress on Separating Effect of Heterojunction from Effect of Size: CdSe/ZnS Quantum Dot System\relax }{section.3}{}}
\@writefile{lof}{\contentsline {figure}{\numberline {4}{\ignorespaces Graphical abstract for studies of effect of ZnS shell on CdSe/ZnS quantum dot system. \relax }}{3}{figure.caption.5}}
\newlabel{fig:graph_abs_cdsezns}{{Figure\nobreakspace  {}4}{3}{Graphical abstract for studies of effect of ZnS shell on CdSe/ZnS quantum dot system. \relax \relax }{figure.caption.5}{}}
\@writefile{lof}{\contentsline {figure}{\numberline {3}{\ignorespaces Results for exciton binding energy, electron-hole recombination probability, and average electron hole separation for core/shell CdSe/ZnS quantum dots versus CdSe core-only quantum dots.\relax }}{4}{figure.caption.4}}
\newlabel{fig:coreshell_results}{{Figure\nobreakspace  {}3}{4}{Results for exciton binding energy, electron-hole recombination probability, and average electron hole separation for core/shell CdSe/ZnS quantum dots versus CdSe core-only quantum dots.\relax \relax }{figure.caption.4}{}}
\@writefile{toc}{\contentsline {section}{\numberline {4}Shape Matters: Isovolumetric Study of Effect of Shape on CdSe Nanoparticles}{4}{section.4}}
\newlabel{sec:isovolume}{{4}{4}{Shape Matters: Isovolumetric Study of Effect of Shape on CdSe Nanoparticles\relax }{section.4}{}}
\@writefile{lof}{\contentsline {figure}{\numberline {5}{\ignorespaces Effect of shape on CdSe quantum dots. \relax }}{4}{figure.caption.6}}
\newlabel{fig:graph_abs_isovol}{{Figure\nobreakspace  {}5}{4}{Effect of shape on CdSe quantum dots. \relax \relax }{figure.caption.6}{}}
\citation{pra_paper}
\citation{pra_paper}
\citation{cite_rabani}
\citation{cite_rabani}
\citation{cite_rabani}
\citation{cite_rabani}
\citation{zunger}
\citation{zunger}
\citation{zunger}
\@writefile{toc}{\contentsline {section}{\numberline {5}Improving the CdSe Model: XCHF Method with Pseudopotential}{5}{section.5}}
\newlabel{sec:pseudopot}{{5}{5}{Improving the CdSe Model: XCHF Method with Pseudopotential\relax }{section.5}{}}
\@writefile{lof}{\contentsline {figure}{\numberline {6}{\ignorespaces Effect of basis set size on calculation of the ground state energy of the Helium atom using the XCHF method as compared to Hartree-Fock and Full CI calculation. \relax }}{5}{figure.caption.7}}
\newlabel{fig:hel_plot}{{Figure\nobreakspace  {}6}{5}{Effect of basis set size on calculation of the ground state energy of the Helium atom using the XCHF method as compared to Hartree-Fock and Full CI calculation. \relax \relax }{figure.caption.7}{}}
\citation{zunger}
\@writefile{lof}{\contentsline {figure}{\numberline {7}{\ignorespaces Exciton binding energy comparison for CdSe quantum dots using XCHF+Pseudopotential method as compared to pseudopotential+CI results of Franceschetti and Zunger \cite {zunger}. \relax }}{6}{figure.caption.8}}
\newlabel{fig:fig_pseudopot}{{Figure\nobreakspace  {}7}{6}{Exciton binding energy comparison for CdSe quantum dots using XCHF+Pseudopotential method as compared to pseudopotential+CI results of Franceschetti and Zunger \cite {zunger}. \relax \relax }{figure.caption.8}{}}
\@writefile{toc}{\contentsline {section}{\numberline {6}Utilization of Explicitly Correlated Hartree-Fock Method for Construction of Adiabatic Connection Curve for Multi-Component Electron-Hole DFT}{6}{section.6}}
\newlabel{sec:dft}{{6}{6}{Utilization of Explicitly Correlated Hartree-Fock Method for Construction of Adiabatic Connection Curve for Multi-Component Electron-Hole DFT\relax }{section.6}{}}
\@writefile{lof}{\contentsline {figure}{\numberline {8}{\ignorespaces Electron-hole adiabatic connection curve for a model system of an electron-hole pair in a parabolic potential with $\omega = 0.5$.\relax }}{6}{figure.caption.9}}
\newlabel{fig:acc_curve}{{Figure\nobreakspace  {}8}{6}{Electron-hole adiabatic connection curve for a model system of an electron-hole pair in a parabolic potential with $\omega = 0.5$.\relax \relax }{figure.caption.9}{}}
\bibdata{acs-fifth_year,fifth_year_ref,ref_version_qd}
\bibcite{doi:10.1021/ct400485s}{{1}{2013}{{Elward and Chakraborty}}{{}}}
\bibcite{core_shell_jme}{{2}{2014}{{Elward and Chakraborty}}{{}}}
\bibcite{iso_vol}{{3}{2014}{{Scher et~al.}}{{Scher, Elward, and Chakraborty}}}
\bibcite{jme_pseudo}{{4}{2014}{{Elward and Chakraborty}}{{}}}
\bibcite{acc_dft}{{5}{2014}{{Elward et~al.}}{{Elward, Scher, Kaplan, and Chakraborty}}}
\bibcite{lucif_cdse}{{6}{2014}{{Elward et~al.}}{{Elward, Irudayanathan, Nangia, and Chakraborty}}}
\@writefile{toc}{\contentsline {section}{\numberline {7}Conclusion and Future Work}{7}{section.7}}
\newlabel{sec:conclusion}{{7}{7}{Conclusion and Future Work\relax }{section.7}{}}
\@writefile{lof}{\contentsline {figure}{\numberline {9}{\ignorespaces CdSe quantum dot of 5nm in diameter as the protein corona is being formed. \relax }}{7}{figure.caption.10}}
\newlabel{fig:graph_abs_lucif}{{Figure\nobreakspace  {}9}{7}{CdSe quantum dot of 5nm in diameter as the protein corona is being formed. \relax \relax }{figure.caption.10}{}}
\bibcite{aps_1}{{7}{2013}{{Elward and Chakraborty}}{{}}}
\bibcite{aps_acc}{{8}{2013}{{Elward et~al.}}{{Elward, Kaplan, and Chakraborty}}}
\bibcite{aps_2014}{{9}{2014}{{Elward et~al.}}{{Elward, Scher, and Chakraborty}}}
\bibcite{PhysRevB.53.9579}{{10}{1996}{{Wang and Zunger}}{{}}}
\bibcite{doi:10.1021/nn8006916}{{11}{2009}{{Meulenberg et~al.}}{{Meulenberg, Lee, Wolcott, Zhang, Terminello, and van Buuren}}}
\bibcite{PhysRevLett.78.915}{{12}{1997}{{Franceschetti and Zunger}}{{}}}
\bibcite{doi:10.1021/nn201681s}{{13}{2011}{{Jasieniak et~al.}}{{Jasieniak, Califano, and Watkins}}}
\bibcite{kucur:2333}{{14}{2003}{{Kucur et~al.}}{{Kucur, Riegler, Urban, and Nann}}}
\bibcite{CPHC:CPHC200800482}{{15}{2008}{{Inamdar et~al.}}{{Inamdar, Ingole, and Haram}}}
\bibcite{B508268B}{{16}{2005}{{Querner et~al.}}{{Querner, Reiss, Sadki, Zagorska, and Pron}}}
\bibcite{pra_paper}{{17}{2012}{{Elward et~al.}}{{Elward, Hoja, and Chakraborty}}}
\bibcite{cite_rabani}{{18}{1999}{{Rabani et~al.}}{{Rabani, Het\'{e}nyi, Berne, and Brus}}}
\bibcite{zunger}{{19}{1997}{{Franceschetti and Zunger}}{{}}}
\mciteSetMaxCount{main}{bibitem}{19}
\mciteSetMaxCount{main}{subitem}{1}
\mciteSetMaxWidth{main}{bibitem}{786432}
\mciteSetMaxWidth{main}{subitem}{0}
